<svg width="254" height="254" viewBox="0 0 254 254" fill="none" xmlns="http://www.w3.org/2000/svg">
<rect width="254" height="254" fill="white"/>
<path d="M70.5905 108.667L25.5125 176.564C24.1971 178.742 25.5552 181.573 28.0451 181.851L116.988 191.464L70.5905 108.667V108.667ZM28.1646 152.383L60.3193 99.0943L27.5881 79.0681C26.4478 78.3712 25 79.2075 25 80.562V151.472C25 153.228 27.2592 153.881 28.1646 152.383ZM32.7942 199.495L115.818 237.675C118.081 238.742 120.665 237.052 120.665 234.513V205.911L33.7337 196.198C31.8332 195.98 31.073 198.633 32.7942 199.495V199.495ZM67.4814 87.2214L101.618 24.9652C103.471 21.8903 100.084 18.3232 97.0137 20.1133L32.6062 63.062C31.5514 63.7675 31.5855 65.3529 32.6618 66.0149L67.4814 87.2214V87.2214ZM127.499 91.6553H174.14L133.32 18.3188C131.983 16.1063 129.741 15 127.499 15C125.256 15 123.014 16.1063 121.677 18.3188L80.8574 91.6553H127.499ZM227.409 79.0681L194.678 99.0987L226.832 152.387C227.734 153.885 229.997 153.232 229.997 151.472V80.562C229.997 79.2075 228.549 78.3712 227.409 79.0681V79.0681ZM187.516 87.2214L222.335 66.0106C223.416 65.3486 223.446 63.7632 222.391 63.0576L157.983 20.1133C154.913 18.3232 151.526 21.8903 153.379 24.9652L187.516 87.2214ZM221.263 196.198L134.332 205.906V234.508C134.332 237.052 136.916 238.738 139.179 237.67L222.203 199.491C223.924 198.633 223.164 195.98 221.263 196.198V196.198ZM184.407 108.667L138.013 191.464L226.956 181.851C229.446 181.568 230.804 178.742 229.489 176.564L184.407 108.667V108.667ZM127.499 105.593H84.6072L127.499 182.139L170.39 105.593H127.499Z" fill="#D2D2D2"/>
<path d="M127 153.938C142.364 153.938 154.818 140.758 154.818 124.5V75.4375C154.818 59.1794 142.364 46 127 46C111.636 46 99.1818 59.1794 99.1818 75.4375V124.5C99.1818 140.758 111.636 153.938 127 153.938ZM173.364 104.875H168.727C166.166 104.875 164.091 107.071 164.091 109.781V124.5C164.091 147.437 145.403 165.841 123.294 163.56C104.024 161.57 89.9091 143.239 89.9091 122.752V109.781C89.9091 107.071 87.8343 104.875 85.2727 104.875H80.6364C78.0748 104.875 76 107.071 76 109.781V122.096C76 149.583 94.5368 174.087 120.045 177.809V188.281H103.818C101.257 188.281 99.1818 190.477 99.1818 193.188V198.094C99.1818 200.804 101.257 203 103.818 203H150.182C152.743 203 154.818 200.804 154.818 198.094V193.188C154.818 190.477 152.743 188.281 150.182 188.281H133.955V177.926C158.791 174.32 178 151.76 178 124.5V109.781C178 107.071 175.925 104.875 173.364 104.875Z" fill="#4B3B47"/>
</svg>
